LEDBlinking/simulation/qsim/LEDBlinking.msim.vcd
$comment
	File created using the following command:
		vcd file LEDBlinking.msim.vcd -direction
$end
$date
	Fri Feb 23 23:57:18 2018
$end
$version
	ModelSim Version 10.5b
$end
$timescale
	1ps
$end

$scope module LEDBlinking_vlg_vec_tst $end
$var reg 1 ! extClock $end
$var reg 1 " ext_rst_n $end
$var wire 1 # led $end

$scope module i1 $end
$var wire 1 $ gnd $end
$var wire 1 % vcc $end
$var wire 1 & unknown $end
$var tri1 1 ' devclrn $end
$var tri1 1 ( devpor $end
$var tri1 1 ) devoe $end
$var wire 1 * ~ALTERA_ASDO_DATA1~~ibuf_o $end
$var wire 1 + ~ALTERA_ASDO_DATA1~~padout $end
$var wire 1 , ~ALTERA_FLASH_nCE_nCSO~~ibuf_o $end
$var wire 1 - ~ALTERA_FLASH_nCE_nCSO~~padout $end
$var wire 1 . ~ALTERA_DCLK~~padout $end
$var wire 1 / ~ALTERA_DATA0~~ibuf_o $end
$var wire 1 0 ~ALTERA_DATA0~~padout $end
$var wire 1 1 ~ALTERA_nCEO~~padout $end
$var wire 1 2 ~ALTERA_DCLK~~obuf_o $end
$var wire 1 3 ~ALTERA_nCEO~~obuf_o $end
$var wire 1 4 extClock~input_o $end
$var wire 1 5 extClock~inputclkctrl_outclk $end
$var wire 1 6 u1SysCtrl|rst_r1~feeder_combout $end
$var wire 1 7 ext_rst_n~input_o $end
$var wire 1 8 ext_rst_n~inputclkctrl_outclk $end
$var wire 1 9 u1SysCtrl|rst_r1~q $end
$var wire 1 : u1SysCtrl|rst_r2~feeder_combout $end
$var wire 1 ; u1SysCtrl|rst_r2~q $end
$var wire 1 < u1SysCtrl|rst_r2~clkctrl_outclk $end
$var wire 1 = u1SysCtrl|PLL_controll_inst|altpll_component|auto_generated|wire_pll1_fbout $end
$var wire 1 > u1SysCtrl|PLL_controll_inst|altpll_component|auto_generated|wire_pll1_clk[0]~clkctrl_outclk $end
$var wire 1 ? u2LedController|cnt[0]~69_combout $end
$var wire 1 @ u1SysCtrl|PLL_controll_inst|altpll_component|auto_generated|wire_pll1_clk[4]~clkctrl_outclk $end
$var wire 1 A u1SysCtrl|sys_rst_n~feeder_combout $end
$var wire 1 B u1SysCtrl|PLL_controll_inst|altpll_component|auto_generated|wire_pll1_locked $end
$var wire 1 C u1SysCtrl|PLL_controll_inst|altpll_component|auto_generated|pll_lock_sync~feeder_combout $end
$var wire 1 D u1SysCtrl|PLL_controll_inst|altpll_component|auto_generated|pll_lock_sync~q $end
$var wire 1 E u1SysCtrl|PLL_controll_inst|altpll_component|auto_generated|locked~combout $end
$var wire 1 F u1SysCtrl|sys_rst_nr~q $end
$var wire 1 G u1SysCtrl|sys_rst_n~q $end
$var wire 1 H u2LedController|cnt[1]~23_combout $end
$var wire 1 I u2LedController|cnt[1]~24 $end
$var wire 1 J u2LedController|cnt[2]~25_combout $end
$var wire 1 K u2LedController|cnt[2]~26 $end
$var wire 1 L u2LedController|cnt[3]~27_combout $end
$var wire 1 M u2LedController|cnt[3]~28 $end
$var wire 1 N u2LedController|cnt[4]~29_combout $end
$var wire 1 O u2LedController|cnt[4]~30 $end
$var wire 1 P u2LedController|cnt[5]~31_combout $end
$var wire 1 Q u2LedController|cnt[5]~32 $end
$var wire 1 R u2LedController|cnt[6]~33_combout $end
$var wire 1 S u2LedController|cnt[6]~34 $end
$var wire 1 T u2LedController|cnt[7]~35_combout $end
$var wire 1 U u2LedController|cnt[7]~36 $end
$var wire 1 V u2LedController|cnt[8]~37_combout $end
$var wire 1 W u2LedController|cnt[8]~38 $end
$var wire 1 X u2LedController|cnt[9]~39_combout $end
$var wire 1 Y u2LedController|cnt[9]~40 $end
$var wire 1 Z u2LedController|cnt[10]~41_combout $end
$var wire 1 [ u2LedController|cnt[10]~42 $end
$var wire 1 \ u2LedController|cnt[11]~43_combout $end
$var wire 1 ] u2LedController|cnt[11]~44 $end
$var wire 1 ^ u2LedController|cnt[12]~45_combout $end
$var wire 1 _ u2LedController|cnt[12]~46 $end
$var wire 1 ` u2LedController|cnt[13]~47_combout $end
$var wire 1 a u2LedController|cnt[13]~48 $end
$var wire 1 b u2LedController|cnt[14]~49_combout $end
$var wire 1 c u2LedController|cnt[14]~50 $end
$var wire 1 d u2LedController|cnt[15]~51_combout $end
$var wire 1 e u2LedController|cnt[15]~52 $end
$var wire 1 f u2LedController|cnt[16]~53_combout $end
$var wire 1 g u2LedController|cnt[16]~54 $end
$var wire 1 h u2LedController|cnt[17]~55_combout $end
$var wire 1 i u2LedController|cnt[17]~56 $end
$var wire 1 j u2LedController|cnt[18]~57_combout $end
$var wire 1 k u2LedController|cnt[18]~58 $end
$var wire 1 l u2LedController|cnt[19]~59_combout $end
$var wire 1 m u2LedController|cnt[19]~60 $end
$var wire 1 n u2LedController|cnt[20]~61_combout $end
$var wire 1 o u2LedController|cnt[20]~62 $end
$var wire 1 p u2LedController|cnt[21]~63_combout $end
$var wire 1 q u2LedController|cnt[21]~64 $end
$var wire 1 r u2LedController|cnt[22]~65_combout $end
$var wire 1 s u2LedController|cnt[22]~66 $end
$var wire 1 t u2LedController|cnt[23]~67_combout $end
$var wire 1 u u2LedController|cnt [23] $end
$var wire 1 v u2LedController|cnt [22] $end
$var wire 1 w u2LedController|cnt [21] $end
$var wire 1 x u2LedController|cnt [20] $end
$var wire 1 y u2LedController|cnt [19] $end
$var wire 1 z u2LedController|cnt [18] $end
$var wire 1 { u2LedController|cnt [17] $end
$var wire 1 | u2LedController|cnt [16] $end
$var wire 1 } u2LedController|cnt [15] $end
$var wire 1 ~ u2LedController|cnt [14] $end
$var wire 1 !! u2LedController|cnt [13] $end
$var wire 1 "! u2LedController|cnt [12] $end
$var wire 1 #! u2LedController|cnt [11] $end
$var wire 1 $! u2LedController|cnt [10] $end
$var wire 1 %! u2LedController|cnt [9] $end
$var wire 1 &! u2LedController|cnt [8] $end
$var wire 1 '! u2LedController|cnt [7] $end
$var wire 1 (! u2LedController|cnt [6] $end
$var wire 1 )! u2LedController|cnt [5] $end
$var wire 1 *! u2LedController|cnt [4] $end
$var wire 1 +! u2LedController|cnt [3] $end
$var wire 1 ,! u2LedController|cnt [2] $end
$var wire 1 -! u2LedController|cnt [1] $end
$var wire 1 .! u2LedController|cnt [0] $end
$var wire 1 /! u1SysCtrl|PLL_controll_inst|altpll_component|auto_generated|wire_pll1_clk [4] $end
$var wire 1 0! u1SysCtrl|PLL_controll_inst|altpll_component|auto_generated|wire_pll1_clk [3] $end
$var wire 1 1! u1SysCtrl|PLL_controll_inst|altpll_component|auto_generated|wire_pll1_clk [2] $end
$var wire 1 2! u1SysCtrl|PLL_controll_inst|altpll_component|auto_generated|wire_pll1_clk [1] $end
$var wire 1 3! u1SysCtrl|PLL_controll_inst|altpll_component|auto_generated|wire_pll1_clk [0] $end
$var wire 1 4! u1SysCtrl|PLL_controll_inst|altpll_component|auto_generated|pll1_CLK_bus [4] $end
$var wire 1 5! u1SysCtrl|PLL_controll_inst|altpll_component|auto_generated|pll1_CLK_bus [3] $end
$var wire 1 6! u1SysCtrl|PLL_controll_inst|altpll_component|auto_generated|pll1_CLK_bus [2] $end
$var wire 1 7! u1SysCtrl|PLL_controll_inst|altpll_component|auto_generated|pll1_CLK_bus [1] $end
$var wire 1 8! u1SysCtrl|PLL_controll_inst|altpll_component|auto_generated|pll1_CLK_bus [0] $end
$upscope $end
$upscope $end
$enddefinitions $end
#0
$dumpvars
0!
0"
0#
0$
1%
x&
1'
1(
1)
z*
z+
z,
z-
z.
z/
z0
z1
z2
z3
04
05
16
07
08
09
0:
0;
0<
0=
0>
1?
0@
1A
0B
1C
0D
0E
0F
0G
0H
0I
0J
1K
0L
0M
0N
1O
0P
0Q
0R
1S
0T
0U
0V
1W
0X
0Y
0Z
1[
0\
0]
0^
1_
0`
0a
0b
1c
0d
0e
0f
1g
0h
0i
0j
1k
0l
0m
0n
1o
0p
0q
0r
1s
0t
0.!
0-!
0,!
0+!
0*!
0)!
0(!
0'!
0&!
0%!
0$!
0#!
0"!
0!!
0~
0}
0|
0{
0z
0y
0x
0w
0v
0u
03!
02!
01!
00!
0/!
08!
07!
06!
05!
04!
$end
#20000
1!
14
15
#40000
0!
04
05
#60000
1!
14
15
#80000
0!
04
05
#100000
1!
14
15
#120000
0!
04
05
#140000
1!
14
15
#160000
0!
04
05
#180000
1!
14
15
#200000
0!
04
05
#220000
1!
14
15
#240000
0!
04
05
#260000
1!
14
15
#280000
0!
04
05
#300000
1!
14
15
#320000
0!
04
05
#340000
1!
14
15
#360000
0!
04
05
#380000
1!
14
15
#400000
0!
04
05
#420000
1!
14
15
#440000
0!
04
05
#460000
1!
14
15
#480000
0!
04
05
#500000
1!
14
15
#520000
0!
04
05
#540000
1!
14
15
#560000
0!
04
05
#580000
1!
14
15
#600000
0!
04
05
#620000
1!
14
15
#640000
0!
04
05
#660000
1!
14
15
#680000
0!
04
05
#700000
1!
14
15
#720000
0!
04
05
#740000
1!
14
15
#760000
0!
04
05
#780000
1!
14
15
#800000
0!
04
05
#820000
1!
14
15
#840000
0!
04
05
#860000
1!
14
15
#880000
0!
04
05
#900000
1!
14
15
#920000
0!
04
05
#940000
1!
14
15
#960000
0!
04
05
#980000
1!
14
15
#1000000
0!
04
05
#1020000
1!
14
15
#1040000
0!
04
05
#1060000
1!
14
15
#1080000
0!
04
05
#1100000
1!
14
15
#1120000
0!
04
05
#1140000
1!
14
15
#1160000
0!
04
05
#1180000
1!
14
15
#1200000
0!
04
05
#1220000
1!
14
15
#1240000
0!
04
05
#1260000
1!
14
15
#1280000
0!
04
05
#1300000
1!
14
15
#1320000
0!
04
05
#1340000
1!
14
15
#1360000
0!
04
05
#1380000
1!
14
15
#1400000
0!
04
05
#1420000
1!
14
15
#1440000
0!
04
05
#1460000
1!
14
15
#1480000
0!
04
05
#1500000
1!
14
15
#1520000
0!
04
05
#1540000
1!
14
15
#1560000
0!
04
05
#1580000
1!
14
15
#1600000
0!
04
05
#1620000
1!
14
15
#1640000
0!
04
05
#1660000
1!
14
15
#1680000
0!
04
05
#1700000
1!
14
15
#1720000
0!
04
05
#1740000
1!
14
15
#1760000
0!
04
05
#1780000
1!
14
15
#1800000
0!
04
05
#1820000
1!
14
15
#1840000
0!
04
05
#1860000
1!
14
15
#1880000
0!
04
05
#1900000
1!
14
15
#1920000
0!
04
05
#1940000
1!
14
15
#1960000
0!
04
05
#1980000
1!
14
15
#2000000
0!
04
05
#2020000
1!
14
15
#2040000
0!
04
05
#2060000
1!
14
15
#2080000
0!
04
05
#2100000
1!
14
15
#2120000
0!
04
05
#2140000
1!
14
15
#2160000
0!
04
05
#2180000
1!
14
15
#2200000
0!
04
05
#2220000
1!
14
15
#2240000
0!
04
05
#2260000
1!
14
15
#2280000
0!
04
05
#2300000
1!
14
15
#2320000
0!
04
05
#2340000
1!
14
15
#2360000
0!
04
05
#2380000
1!
14
15
#2400000
0!
04
05
#2420000
1!
14
15
#2440000
0!
04
05
#2460000
1!
14
15
#2480000
0!
04
05
#2500000
1!
14
15
#2520000
0!
04
05
#2540000
1!
14
15
#2560000
0!
04
05
#2580000
1!
14
15
#2600000
0!
04
05
#2620000
1!
14
15
#2640000
0!
04
05
#2660000
1!
14
15
#2680000
0!
04
05
#2700000
1!
14
15
#2720000
0!
04
05
#2740000
1!
14
15
#2760000
0!
04
05
#2780000
1!
14
15
#2800000
0!
04
05
#2820000
1!
14
15
#2840000
0!
04
05
#2860000
1!
14
15
#2880000
0!
04
05
#2900000
1!
14
15
#2920000
0!
04
05
#2940000
1!
14
15
#2960000
0!
04
05
#2980000
1!
14
15
#3000000
0!
04
05
#3020000
1!
14
15
#3040000
0!
04
05
#3060000
1!
14
15
#3080000
0!
04
05
#3100000
1!
14
15
#3120000
0!
04
05
#3140000
1!
14
15
#3160000
0!
04
05
#3180000
1!
14
15
#3200000
0!
04
05
#3220000
1!
14
15
#3240000
0!
04
05
#3260000
1!
14
15
#3280000
0!
04
05
#3300000
1!
14
15
#3320000
0!
04
05
#3340000
1!
14
15
#3360000
0!
04
05
#3380000
1!
14
15
#3400000
0!
04
05
#3420000
1!
14
15
#3440000
0!
04
05
#3460000
1!
14
15
#3480000
0!
04
05
#3500000
1!
14
15
#3520000
0!
04
05
#3540000
1!
14
15
#3560000
0!
04
05
#3580000
1!
14
15
#3600000
0!
04
05
#3620000
1!
14
15
#3640000
0!
04
05
#3660000
1!
14
15
#3680000
0!
04
05
#3700000
1!
14
15
#3720000
0!
04
05
#3740000
1!
14
15
#3760000
0!
04
05
#3780000
1!
14
15
#3800000
0!
04
05
#3820000
1!
14
15
#3840000
0!
04
05
#3860000
1!
14
15
#3880000
0!
04
05
#3900000
1!
14
15
#3920000
0!
04
05
#3940000
1!
14
15
#3960000
0!
04
05
#3980000
1!
14
15
#4000000
0!
04
05
#4020000
1!
14
15
#4040000
0!
04
05
#4060000
1!
14
15
#4080000
0!
04
05
#4100000
1!
14
15
#4120000
0!
04
05
#4140000
1!
14
15
#4160000
0!
04
05
#4180000
1!
14
15
#4200000
0!
04
05
#4220000
1!
14
15
#4240000
0!
04
05
#4260000
1!
14
15
#4280000
0!
04
05
#4300000
1!
14
15
#4320000
0!
04
05
#4340000
1!
14
15
#4360000
0!
04
05
#4380000
1!
14
15
#4400000
0!
04
05
#4420000
1!
14
15
#4440000
0!
04
05
#4460000
1!
14
15
#4480000
0!
04
05
#4500000
1!
14
15
#4520000
0!
04
05
#4540000
1!
14
15
#4560000
0!
04
05
#4580000
1!
14
15
#4600000
0!
04
05
#4620000
1!
14
15
#4640000
0!
04
05
#4660000
1!
14
15
#4680000
0!
04
05
#4700000
1!
14
15
#4720000
0!
04
05
#4740000
1!
14
15
#4760000
0!
04
05
#4780000
1!
14
15
#4800000
0!
04
05
#4820000
1!
14
15
#4840000
0!
04
05
#4860000
1!
14
15
#4880000
0!
04
05
#4900000
1!
14
15
#4920000
0!
04
05
#4940000
1!
14
15
#4960000
0!
04
05
#4980000
1!
14
15
#5000000
0!
04
05
#5020000
1!
14
15
#5040000
0!
04
05
#5060000
1!
14
15
#5080000
0!
04
05
#5100000
1!
14
15
#5120000
0!
04
05
#5140000
1!
14
15
#5160000
0!
04
05
#5180000
1!
14
15
#5200000
0!
04
05
#5220000
1!
14
15
#5240000
0!
04
05
#5260000
1!
14
15
#5280000
0!
04
05
#5300000
1!
14
15
#5320000
0!
04
05
#5340000
1!
14
15
#5360000
0!
04
05
#5380000
1!
14
15
#5400000
0!
04
05
#5420000
1!
14
15
#5440000
0!
04
05
#5460000
1!
14
15
#5480000
0!
04
05
#5500000
1!
14
15
#5520000
0!
04
05
#5540000
1!
14
15
#5560000
0!
04
05
#5580000
1!
14
15
#5600000
0!
04
05
#5620000
1!
14
15
#5640000
0!
04
05
#5660000
1!
14
15
#5680000
0!
04
05
#5700000
1!
14
15
#5720000
0!
04
05
#5740000
1!
14
15
#5760000
0!
04
05
#5780000
1!
14
15
#5800000
0!
04
05
#5820000
1!
14
15
#5840000
0!
04
05
#5860000
1!
14
15
#5880000
0!
04
05
#5900000
1!
14
15
#5920000
0!
04
05
#5940000
1!
14
15
#5960000
0!
04
05
#5980000
1!
14
15
#6000000
0!
04
05
#6020000
1!
14
15
#6040000
0!
04
05
#6060000
1!
14
15
#6080000
0!
04
05
#6100000
1!
14
15
#6120000
0!
04
05
#6140000
1!
14
15
#6160000
0!
04
05
#6180000
1!
14
15
#6200000
0!
04
05
#6220000
1!
14
15
#6240000
0!
04
05
#6260000
1!
14
15
#6280000
0!
04
05
#6300000
1!
14
15
#6320000
0!
04
05
#6340000
1!
14
15
#6360000
0!
04
05
#6380000
1!
14
15
#6400000
0!
04
05
#6420000
1!
14
15
#6440000
0!
04
05
#6460000
1!
14
15
#6480000
0!
04
05
#6500000
1!
14
15
#6520000
0!
04
05
#6540000
1!
14
15
#6560000
0!
04
05
#6580000
1!
14
15
#6600000
0!
04
05
#6620000
1!
14
15
#6640000
0!
04
05
#6660000
1!
14
15
#6680000
0!
04
05
#6700000
1!
14
15
#6720000
0!
04
05
#6740000
1!
14
15
#6760000
0!
04
05
#6780000
1!
14
15
#6800000
0!
04
05
#6820000
1!
14
15
#6840000
0!
04
05
#6860000
1!
14
15
#6880000
0!
04
05
#6900000
1!
14
15
#6920000
0!
04
05
#6940000
1!
14
15
#6960000
0!
04
05
#6980000
1!
14
15
#7000000
0!
04
05
#7020000
1!
14
15
#7040000
0!
04
05
#7060000
1!
14
15
#7080000
0!
04
05
#7100000
1!
14
15
#7120000
0!
04
05
#7140000
1!
14
15
#7160000
0!
04
05
#7180000
1!
14
15
#7200000
0!
04
05
#7220000
1!
14
15
#7240000
0!
04
05
#7260000
1!
14
15
#7280000
0!
04
05
#7300000
1!
14
15
#7320000
0!
04
05
#7340000
1!
14
15
#7360000
0!
04
05
#7380000
1!
14
15
#7400000
0!
04
05
#7420000
1!
14
15
#7440000
0!
04
05
#7460000
1!
14
15
#7480000
0!
04
05
#7500000
1!
14
15
#7520000
0!
04
05
#7540000
1!
14
15
#7560000
0!
04
05
#7580000
1!
14
15
#7600000
0!
04
05
#7620000
1!
14
15
#7640000
0!
04
05
#7660000
1!
14
15
#7680000
0!
04
05
#7700000
1!
14
15
#7720000
0!
04
05
#7740000
1!
14
15
#7760000
0!
04
05
#7780000
1!
14
15
#7800000
0!
04
05
#7820000
1!
14
15
#7840000
0!
04
05
#7860000
1!
14
15
#7880000
0!
04
05
#7900000
1!
14
15
#7920000
0!
04
05
#7940000
1!
14
15
#7960000
0!
04
05
#7980000
1!
14
15
#8000000
0!
04
05
#8020000
1!
14
15
#8040000
0!
04
05
#8060000
1!
14
15
#8080000
0!
04
05
#8100000
1!
14
15
#8120000
0!
04
05
#8140000
1!
14
15
#8160000
0!
04
05
#8180000
1!
14
15
#8200000
0!
04
05
#8220000
1!
14
15
#8240000
0!
04
05
#8260000
1!
14
15
#8280000
0!
04
05
#8300000
1!
14
15
#8320000
0!
04
05
#8340000
1!
14
15
#8360000
0!
04
05
#8380000
1!
14
15
#8400000
0!
04
05
#8420000
1!
14
15
#8440000
0!
04
05
#8460000
1!
14
15
#8480000
0!
04
05
#8500000
1!
14
15
#8520000
0!
04
05
#8540000
1!
14
15
#8560000
0!
04
05
#8580000
1!
14
15
#8600000
0!
04
05
#8620000
1!
14
15
#8640000
0!
04
05
#8660000
1!
14
15
#8680000
0!
04
05
#8700000
1!
14
15
#8720000
0!
04
05
#8740000
1!
14
15
#8760000
0!
04
05
#8780000
1!
14
15
#8800000
0!
04
05
#8820000
1!
14
15
#8840000
0!
04
05
#8860000
1!
14
15
#8880000
0!
04
05
#8900000
1!
14
15
#8920000
0!
04
05
#8940000
1!
14
15
#8960000
0!
04
05
#8980000
1!
14
15
#9000000
0!
04
05
#9020000
1!
14
15
#9040000
0!
04
05
#9060000
1!
14
15
#9080000
0!
04
05
#9100000
1!
14
15
#9120000
0!
04
05
#9140000
1!
14
15
#9160000
0!
04
05
#9180000
1!
14
15
#9200000
0!
04
05
#9220000
1!
14
15
#9240000
0!
04
05
#9260000
1!
14
15
#9280000
0!
04
05
#9300000
1!
14
15
#9320000
0!
04
05
#9340000
1!
14
15
#9360000
0!
04
05
#9380000
1!
14
15
#9400000
0!
04
05
#9420000
1!
14
15
#9440000
0!
04
05
#9460000
1!
14
15
#9480000
0!
04
05
#9500000
1!
14
15
#9520000
0!
04
05
#9540000
1!
14
15
#9560000
0!
04
05
#9580000
1!
14
15
#9600000
0!
04
05
#9620000
1!
14
15
#9640000
0!
04
05
#9660000
1!
14
15
#9680000
0!
04
05
#9700000
1!
14
15
#9720000
0!
04
05
#9740000
1!
14
15
#9760000
0!
04
05
#9780000
1!
14
15
#9800000
0!
04
05
#9820000
1!
14
15
#9840000
0!
04
05
#9860000
1!
14
15
#9880000
0!
04
05
#9900000
1!
14
15
#9920000
0!
04
05
#9940000
1!
14
15
#9960000
0!
04
05
#9980000
1!
14
15
